Tidymodeling: Go FurtheR
…
.pull-right[

```r
rec %>%
  # estimate from training data
  prep(train_tbl, retain = TRUE) %>%
  juice()
```

```
## # A tibble: 669 x 6
##    Survived Sex      Age SibSp Parch  Fare
##    <fct>    <fct>  <dbl> <int> <int> <dbl>
##  1 no       male    22       1     0  7.25
##  2 yes      female  38       1     0 71.3
##  3 yes      female  26       0     0  7.92
##  4 yes      female  35       1     0 53.1
##  5 no       male    35       0     0  8.05
##  6 no       male    29.5     0     0  8.46
##  7 no       male    54       0     0 51.9
##  8 no       male     2       3     1 21.1
##  9 yes      female  27       0     2 11.1
## 10 yes      female  14       1     0 30.1
## # ... with 659 more rows
```
…
